{
  "guid": "(used as index for DB, the share profile code)",
  "name": "profile 1",
  "desc": "description",
  "analog": {
    "actPoint": 200,
    "enableDigital": false,
    "mapping": {
      "leftJoystickUp": {
        "rowNr": 2,
        "colNr": 2
      },
      "leftJoystickDown": {
        "rowNr": 3,
        "colNr": 2
      },
      "leftJoystickLeft": {
        "rowNr": 3,
        "colNr": 1
      },
      "leftJoystickRight": {
        "rowNr": 3,
        "colNr": 4
      }
    },
    "analogCurve": []
  },
  "digital": {
    "actPoint": 200
  },
  "rgb": {
    "brightness": 100,
    "kbdArray": [
      [
        {
          "red": 255,
          "green": 255,
          "blue": 255
        },
        {
          "red": 255,
          "green": 255,
          "blue": 255
        },
        {
          "red": 255,
          "green": 255,
          "blue": 255
        },
        {
          "red": 255,
          "green": 255,
          "blue": 255
        },
        {
          "red": 255,
          "green": 255,
          "blue": 255
        },
        {
          "red": 255,
          "green": 255,
          "blue": 255
        },
        {
          "red": 255,
          "green": 255,
          "blue": 255
        },
        {
          "red": 255,
          "green": 255,
          "blue": 255
        },
        {
          "red": 255,
          "green": 255,
          "blue": 255
        },
        {
          "red": 255,
          "green": 255,
          "blue": 255
        },
        {
          "red": 255,
          "green": 255,
          "blue": 255
        },
        {
          "red": 255,
          "green": 255,
          "blue": 255
        },
        {
          "red": 255,
          "green": 255,
          "blue": 255
        },
        {
          "red": 255,
          "green": 255,
          "blue": 255
        },
        {
          "red": 255,
          "green": 255,
          "blue": 255
        },
        {
          "red": 255,
          "green": 255,
          "blue": 255
        }
      ],
      [
        {
          "red": 255,
          "green": 255,
          "blue": 255
        },
        {
          "red": 255,
          "green": 255,
          "blue": 255
        },
        {
          "red": 255,
          "green": 255,
          "blue": 255
        },
        {
          "red": 255,
          "green": 255,
          "blue": 255
        },
        {
          "red": 255,
          "green": 255,
          "blue": 255
        },
        {
          "red": 255,
          "green": 255,
          "blue": 255
        },
        {
          "red": 255,
          "green": 255,
          "blue": 255
        },
        {
          "red": 255,
          "green": 255,
          "blue": 255
        },
        {
          "red": 255,
          "green": 255,
          "blue": 255
        },
        {
          "red": 255,
          "green": 255,
          "blue": 255
        },
        {
          "red": 255,
          "green": 255,
          "blue": 255
        },
        {
          "red": 255,
          "green": 255,
          "blue": 255
        },
        {
          "red": 255,
          "green": 255,
          "blue": 255
        },
        {
          "red": 255,
          "green": 255,
          "blue": 255
        },
        {
          "red": 255,
          "green": 255,
          "blue": 255
        },
        {
          "red": 255,
          "green": 255,
          "blue": 255
        },
        {
          "red": 255,
          "green": 255,
          "blue": 255
        },
        {
          "red": 255,
          "green": 255,
          "blue": 255
        },
        {
          "red": 255,
          "green": 255,
          "blue": 255
        }
      ],
      [
        {
          "red": 255,
          "green": 255,
          "blue": 255
        },
        {
          "red": 255,
          "green": 255,
          "blue": 255
        },
        {
          "red": 255,
          "green": 255,
          "blue": 255
        },
        {
          "red": 255,
          "green": 255,
          "blue": 255
        },
        {
          "red": 255,
          "green": 255,
          "blue": 255
        },
        {
          "red": 255,
          "green": 255,
          "blue": 255
        },
        {
          "red": 255,
          "green": 255,
          "blue": 255
        },
        {
          "red": 255,
          "green": 255,
          "blue": 255
        },
        {
          "red": 255,
          "green": 255,
          "blue": 255
        },
        {
          "red": 255,
          "green": 255,
          "blue": 255
        },
        {
          "red": 255,
          "green": 255,
          "blue": 255
        },
        {
          "red": 255,
          "green": 255,
          "blue": 255
        },
        {
          "red": 255,
          "green": 255,
          "blue": 255
        },
        {
          "red": 255,
          "green": 255,
          "blue": 255
        }
      ],
      [
        {
          "red": 255,
          "green": 255,
          "blue": 255
        },
        {
          "red": 255,
          "green": 255,
          "blue": 255
        },
        {
          "red": 255,
          "green": 255,
          "blue": 255
        },
        {
          "red": 255,
          "green": 255,
          "blue": 255
        },
        {
          "red": 255,
          "green": 255,
          "blue": 255
        },
        {
          "red": 255,
          "green": 255,
          "blue": 255
        },
        {
          "red": 255,
          "green": 255,
          "blue": 255
        },
        {
          "red": 255,
          "green": 255,
          "blue": 255
        },
        {
          "red": 255,
          "green": 255,
          "blue": 255
        },
        {
          "red": 255,
          "green": 255,
          "blue": 255
        },
        {
          "red": 255,
          "green": 255,
          "blue": 255
        },
        {
          "red": 255,
          "green": 255,
          "blue": 255
        },
        {
          "red": 255,
          "green": 255,
          "blue": 255
        },
        {
          "red": 255,
          "green": 255,
          "blue": 255
        }
      ],
      [
        {
          "red": 255,
          "green": 255,
          "blue": 255
        },
        {
          "red": 255,
          "green": 255,
          "blue": 255
        },
        {
          "red": 255,
          "green": 255,
          "blue": 255
        },
        {
          "red": 255,
          "green": 255,
          "blue": 255
        },
        {
          "red": 255,
          "green": 255,
          "blue": 255
        },
        {
          "red": 255,
          "green": 255,
          "blue": 255
        },
        {
          "red": 255,
          "green": 255,
          "blue": 255
        },
        {
          "red": 255,
          "green": 255,
          "blue": 255
        },
        {
          "red": 255,
          "green": 255,
          "blue": 255
        },
        {
          "red": 255,
          "green": 255,
          "blue": 255
        },
        {
          "red": 255,
          "green": 255,
          "blue": 255
        },
        {
          "red": 255,
          "green": 255,
          "blue": 255
        },
        {
          "red": 255,
          "green": 255,
          "blue": 255
        },
        {
          "red": 255,
          "green": 255,
          "blue": 255
        },
        {
          "red": 255,
          "green": 255,
          "blue": 255
        },
        {
          "red": 255,
          "green": 255,
          "blue": 255
        },
        {
          "red": 255,
          "green": 255,
          "blue": 255
        }
      ],
      [
        {
          "red": 255,
          "green": 255,
          "blue": 255
        },
        {
          "red": 255,
          "green": 255,
          "blue": 255
        },
        {
          "red": 255,
          "green": 255,
          "blue": 255
        },
        {
          "red": 255,
          "green": 255,
          "blue": 255
        },
        {
          "red": 255,
          "green": 255,
          "blue": 255
        },
        {
          "red": 255,
          "green": 255,
          "blue": 255
        },
        {
          "red": 255,
          "green": 255,
          "blue": 255
        },
        {
          "red": 255,
          "green": 255,
          "blue": 255
        },
        {
          "red": 255,
          "green": 255,
          "blue": 255
        },
        {
          "red": 255,
          "green": 255,
          "blue": 255
        },
        {
          "red": 255,
          "green": 255,
          "blue": 255
        }
      ]
    ]
  }
}
}

for (var i = 0; i < 6; i++) {
	// console.log(woot.rgb.kbdArray[i]);
	var currentRow = woot.rgb.kbdArray[i];
	console.log('Start of row ' + i + '!');
	for (var r = 0; r < currentRow.length; r++) {
		console.log(currentRow[r]);
}
